EESchema Schematic File Version 4
EELAYER 30 0
EELAYER END
$Descr A4 11693 8268
encoding utf-8
Sheet 1 1
Title "testeur de leds"
Date "2020-10-06"
Rev "0.0"
Comp "http://philippe.demerliac.free.fr/Articles/CP0053/CP0053.htm"
Comment1 ""
Comment2 ""
Comment3 ""
Comment4 ""
$EndDescr
$Comp
L Connector:Screw_Terminal_01x02 J1
U 1 1 5F7C4858
P 1600 6450
F 0 "J1" H 1518 6125 50  0000 C CNN
F 1 "PWR24" H 1518 6216 50  0000 C CNN
F 2 "TerminalBlock:TerminalBlock_Altech_AK300-2_P5.00mm" H 1600 6450 50  0001 C CNN
F 3 "~" H 1600 6450 50  0001 C CNN
	1    1600 6450
	-1   0    0    1   
$EndComp
$Comp
L Device:R_US R1
U 1 1 5F7C545B
P 2100 6350
F 0 "R1" V 1895 6350 50  0000 C CNN
F 1 "1W33" V 1986 6350 50  0000 C CNN
F 2 "Resistor_THT:R_Axial_DIN0516_L15.5mm_D5.0mm_P25.40mm_Horizontal" V 2140 6340 50  0001 C CNN
F 3 "~" H 2100 6350 50  0001 C CNN
	1    2100 6350
	0    1    1    0   
$EndComp
$Comp
L Diode:1N4001 D1
U 1 1 5F7C5A71
P 2450 6350
F 0 "D1" H 2450 6133 50  0000 C CNN
F 1 "1N4001" H 2450 6224 50  0000 C CNN
F 2 "Resistor_THT:R_Axial_DIN0614_L14.3mm_D5.7mm_P20.32mm_Horizontal" H 2450 6175 50  0001 C CNN
F 3 "http://www.vishay.com/docs/88503/1n4001.pdf" H 2450 6350 50  0001 C CNN
	1    2450 6350
	-1   0    0    1   
$EndComp
$Comp
L Device:CP_Small C1
U 1 1 5F7C8B6F
P 2700 6550
F 0 "C1" H 2788 6596 50  0000 L CNN
F 1 "10µ" H 2788 6505 50  0000 L CNN
F 2 "Capacitor_SMD:CP_Elec_4x3" H 2700 6550 50  0001 C CNN
F 3 "~" H 2700 6550 50  0001 C CNN
	1    2700 6550
	1    0    0    -1  
$EndComp
$Comp
L Regulator_Linear:LM7815_TO220 U1
U 1 1 5F7C9173
P 3200 6350
F 0 "U1" H 3200 6592 50  0000 C CNN
F 1 "LM7815_TO220" H 3200 6501 50  0000 C CNN
F 2 "Package_TO_SOT_THT:TO-220-3_Vertical" H 3200 6575 50  0001 C CIN
F 3 "https://www.onsemi.cn/PowerSolutions/document/MC7800-D.PDF" H 3200 6300 50  0001 C CNN
	1    3200 6350
	1    0    0    -1  
$EndComp
$Comp
L Diode:1N4001 D2
U 1 1 5F7C9AAA
P 3200 6000
F 0 "D2" H 3200 6217 50  0000 C CNN
F 1 "1N4001" H 3200 6126 50  0000 C CNN
F 2 "Resistor_THT:R_Axial_DIN0614_L14.3mm_D5.7mm_P20.32mm_Horizontal" H 3200 5825 50  0001 C CNN
F 3 "http://www.vishay.com/docs/88503/1n4001.pdf" H 3200 6000 50  0001 C CNN
	1    3200 6000
	1    0    0    -1  
$EndComp
$Comp
L Device:C_Small C2
U 1 1 5F7CA5F2
P 3650 6550
F 0 "C2" H 3742 6596 50  0000 L CNN
F 1 "1.5µ" H 3742 6505 50  0000 L CNN
F 2 "Capacitor_SMD:CP_Elec_4x3" H 3650 6550 50  0001 C CNN
F 3 "~" H 3650 6550 50  0001 C CNN
	1    3650 6550
	1    0    0    -1  
$EndComp
$Comp
L Device:R_US R2
U 1 1 5F7CAF93
P 3950 6350
F 0 "R2" V 3745 6350 50  0000 C CNN
F 1 "680" V 3836 6350 50  0000 C CNN
F 2 "Resistor_SMD:R_1206_3216Metric" V 3990 6340 50  0001 C CNN
F 3 "~" H 3950 6350 50  0001 C CNN
	1    3950 6350
	0    1    1    0   
$EndComp
$Comp
L Device:LED D3
U 1 1 5F7CB439
P 4250 6550
F 0 "D3" V 4289 6432 50  0000 R CNN
F 1 "LED" V 4198 6432 50  0000 R CNN
F 2 "Connector_PinSocket_2.54mm:PinSocket_1x02_P2.54mm_Vertical" H 4250 6550 50  0001 C CNN
F 3 "~" H 4250 6550 50  0001 C CNN
	1    4250 6550
	0    -1   -1   0   
$EndComp
$Comp
L power:GND #PWR04
U 1 1 5F7CBBCF
P 3650 6800
F 0 "#PWR04" H 3650 6550 50  0001 C CNN
F 1 "GND" H 3655 6627 50  0000 C CNN
F 2 "" H 3650 6800 50  0001 C CNN
F 3 "" H 3650 6800 50  0001 C CNN
	1    3650 6800
	1    0    0    -1  
$EndComp
$Comp
L power:GND #PWR06
U 1 1 5F7CBD4E
P 4250 6800
F 0 "#PWR06" H 4250 6550 50  0001 C CNN
F 1 "GND" H 4255 6627 50  0000 C CNN
F 2 "" H 4250 6800 50  0001 C CNN
F 3 "" H 4250 6800 50  0001 C CNN
	1    4250 6800
	1    0    0    -1  
$EndComp
$Comp
L power:GND #PWR03
U 1 1 5F7CBF24
P 3200 6800
F 0 "#PWR03" H 3200 6550 50  0001 C CNN
F 1 "GND" H 3205 6627 50  0000 C CNN
F 2 "" H 3200 6800 50  0001 C CNN
F 3 "" H 3200 6800 50  0001 C CNN
	1    3200 6800
	1    0    0    -1  
$EndComp
$Comp
L power:GND #PWR02
U 1 1 5F7CC281
P 2700 6800
F 0 "#PWR02" H 2700 6550 50  0001 C CNN
F 1 "GND" H 2705 6627 50  0000 C CNN
F 2 "" H 2700 6800 50  0001 C CNN
F 3 "" H 2700 6800 50  0001 C CNN
	1    2700 6800
	1    0    0    -1  
$EndComp
$Comp
L power:GND #PWR01
U 1 1 5F7CC413
P 2150 6800
F 0 "#PWR01" H 2150 6550 50  0001 C CNN
F 1 "GND" H 2155 6627 50  0000 C CNN
F 2 "" H 2150 6800 50  0001 C CNN
F 3 "" H 2150 6800 50  0001 C CNN
	1    2150 6800
	1    0    0    -1  
$EndComp
Wire Wire Line
	4250 6800 4250 6700
Wire Wire Line
	4250 6400 4250 6350
Wire Wire Line
	4250 6350 4100 6350
Wire Wire Line
	3800 6350 3700 6350
Wire Wire Line
	3650 6350 3650 6450
Connection ~ 3650 6350
Wire Wire Line
	3650 6350 3550 6350
Wire Wire Line
	3650 6650 3650 6800
Wire Wire Line
	3200 6650 3200 6800
Wire Wire Line
	2700 6650 2700 6800
Wire Wire Line
	2700 6450 2700 6350
Wire Wire Line
	2700 6350 2600 6350
Wire Wire Line
	2700 6350 2800 6350
Connection ~ 2700 6350
Wire Wire Line
	2800 6350 2800 6000
Wire Wire Line
	2800 6000 3050 6000
Connection ~ 2800 6350
Wire Wire Line
	2800 6350 2900 6350
Wire Wire Line
	3350 6000 3550 6000
Wire Wire Line
	3550 6000 3550 6350
Connection ~ 3550 6350
Wire Wire Line
	3550 6350 3500 6350
Wire Wire Line
	2300 6350 2250 6350
Wire Wire Line
	1950 6350 1800 6350
Wire Wire Line
	1800 6450 1900 6450
Wire Wire Line
	2150 6450 2150 6800
$Comp
L power:+15V #PWR05
U 1 1 5F7CECF6
P 3700 6000
F 0 "#PWR05" H 3700 5850 50  0001 C CNN
F 1 "+15V" H 3715 6173 50  0000 C CNN
F 2 "" H 3700 6000 50  0001 C CNN
F 3 "" H 3700 6000 50  0001 C CNN
	1    3700 6000
	1    0    0    -1  
$EndComp
Wire Wire Line
	3700 6000 3700 6350
Connection ~ 3700 6350
Wire Wire Line
	3700 6350 3650 6350
$Comp
L power:PWR_FLAG #FLG01
U 1 1 5F7CF9B0
P 1900 6450
F 0 "#FLG01" H 1900 6525 50  0001 C CNN
F 1 "PWR_FLAG" H 1900 6623 50  0000 C CNN
F 2 "" H 1900 6450 50  0001 C CNN
F 3 "~" H 1900 6450 50  0001 C CNN
	1    1900 6450
	-1   0    0    1   
$EndComp
Connection ~ 1900 6450
Wire Wire Line
	1900 6450 2150 6450
$Comp
L Amplifier_Operational:TL062 U2
U 3 1 5F7D00C4
P 5150 6400
F 0 "U2" H 5108 6446 50  0000 L CNN
F 1 "TL062" H 5108 6355 50  0000 L CNN
F 2 "Package_SO:SOIC-8_3.9x4.9mm_P1.27mm" H 5150 6400 50  0001 C CNN
F 3 "http://www.ti.com/lit/ds/symlink/tl061.pdf" H 5150 6400 50  0001 C CNN
	3    5150 6400
	1    0    0    -1  
$EndComp
$Comp
L power:+15V #PWR07
U 1 1 5F7D30A5
P 5050 6000
F 0 "#PWR07" H 5050 5850 50  0001 C CNN
F 1 "+15V" H 5065 6173 50  0000 C CNN
F 2 "" H 5050 6000 50  0001 C CNN
F 3 "" H 5050 6000 50  0001 C CNN
	1    5050 6000
	1    0    0    -1  
$EndComp
$Comp
L power:GND #PWR08
U 1 1 5F7D355D
P 5050 6800
F 0 "#PWR08" H 5050 6550 50  0001 C CNN
F 1 "GND" H 5055 6627 50  0000 C CNN
F 2 "" H 5050 6800 50  0001 C CNN
F 3 "" H 5050 6800 50  0001 C CNN
	1    5050 6800
	1    0    0    -1  
$EndComp
$Comp
L Device:C_Small C3
U 1 1 5F7D3A93
P 5550 6400
F 0 "C3" H 5642 6446 50  0000 L CNN
F 1 "100n" H 5642 6355 50  0000 L CNN
F 2 "Capacitor_SMD:C_1206_3216Metric" H 5550 6400 50  0001 C CNN
F 3 "~" H 5550 6400 50  0001 C CNN
	1    5550 6400
	1    0    0    -1  
$EndComp
Wire Wire Line
	5050 6000 5050 6050
Wire Wire Line
	5550 6050 5550 6300
Connection ~ 5050 6050
Wire Wire Line
	5050 6050 5050 6100
Wire Wire Line
	5050 6700 5050 6750
Wire Wire Line
	5050 6750 5550 6750
Wire Wire Line
	5550 6750 5550 6500
Connection ~ 5050 6750
Wire Wire Line
	5050 6750 5050 6800
$Comp
L power:+15V #PWR09
U 1 1 5F7D5F4E
P 1700 2250
F 0 "#PWR09" H 1700 2100 50  0001 C CNN
F 1 "+15V" H 1715 2423 50  0000 C CNN
F 2 "" H 1700 2250 50  0001 C CNN
F 3 "" H 1700 2250 50  0001 C CNN
	1    1700 2250
	1    0    0    -1  
$EndComp
$Comp
L Device:R_POT_TRIM_US RV1
U 1 1 5F7D65B6
P 1700 2550
F 0 "RV1" H 1632 2596 50  0000 R CNN
F 1 "2k" H 1632 2505 50  0000 R CNN
F 2 "Potentiometer_THT:Potentiometer_Bourns_3006W_Horizontal" H 1700 2550 50  0001 C CNN
F 3 "~" H 1700 2550 50  0001 C CNN
	1    1700 2550
	1    0    0    -1  
$EndComp
$Comp
L Device:R_POT_US RV2
U 1 1 5F7D6EE9
P 1700 2950
F 0 "RV2" H 1632 2996 50  0000 R CNN
F 1 "10k" H 1632 2905 50  0000 R CNN
F 2 "Potentiometer_THT:Potentiometer_Bourns_3009Y_Horizontal" H 1700 2950 50  0001 C CNN
F 3 "~" H 1700 2950 50  0001 C CNN
	1    1700 2950
	1    0    0    -1  
$EndComp
$Comp
L Device:R_POT_TRIM_US RV3
U 1 1 5F7D72A2
P 1700 3350
F 0 "RV3" H 1632 3396 50  0000 R CNN
F 1 "10k" H 1632 3305 50  0000 R CNN
F 2 "Potentiometer_THT:Potentiometer_Bourns_3009Y_Horizontal" H 1700 3350 50  0001 C CNN
F 3 "~" H 1700 3350 50  0001 C CNN
	1    1700 3350
	1    0    0    -1  
$EndComp
$Comp
L Device:R_US R3
U 1 1 5F7D7CD0
P 1700 3750
F 0 "R3" H 1768 3796 50  0000 L CNN
F 1 "1k" H 1768 3705 50  0000 L CNN
F 2 "Resistor_SMD:R_1206_3216Metric" V 1740 3740 50  0001 C CNN
F 3 "~" H 1700 3750 50  0001 C CNN
	1    1700 3750
	1    0    0    -1  
$EndComp
$Comp
L power:GND #PWR010
U 1 1 5F7D834A
P 1700 4100
F 0 "#PWR010" H 1700 3850 50  0001 C CNN
F 1 "GND" H 1705 3927 50  0000 C CNN
F 2 "" H 1700 4100 50  0001 C CNN
F 3 "" H 1700 4100 50  0001 C CNN
	1    1700 4100
	1    0    0    -1  
$EndComp
Wire Wire Line
	1700 2250 1700 2350
Wire Wire Line
	1700 2350 1900 2350
Wire Wire Line
	1900 2350 1900 2550
Wire Wire Line
	1900 2550 1850 2550
Connection ~ 1700 2350
Wire Wire Line
	1700 2350 1700 2400
Wire Wire Line
	1700 3100 1700 3150
Wire Wire Line
	1700 3150 1900 3150
Wire Wire Line
	1900 3150 1900 3350
Wire Wire Line
	1900 3350 1850 3350
Connection ~ 1700 3150
Wire Wire Line
	1700 3150 1700 3200
Wire Wire Line
	1700 3500 1700 3600
Wire Wire Line
	1700 3900 1700 4100
Wire Wire Line
	1700 2800 1700 2700
$Comp
L Amplifier_Operational:TL062 U2
U 2 1 5F7DD598
P 2850 2850
F 0 "U2" H 2850 3217 50  0000 C CNN
F 1 "TL062" H 2850 3126 50  0000 C CNN
F 2 "Package_SO:SOIC-8_3.9x4.9mm_P1.27mm" H 2850 2850 50  0001 C CNN
F 3 "http://www.ti.com/lit/ds/symlink/tl061.pdf" H 2850 2850 50  0001 C CNN
	2    2850 2850
	1    0    0    1   
$EndComp
$Comp
L Amplifier_Operational:TL062 U2
U 1 1 5F7DF476
P 6200 3550
F 0 "U2" H 6200 3183 50  0000 C CNN
F 1 "TL062" H 6200 3274 50  0000 C CNN
F 2 "Package_SO:SOIC-8_3.9x4.9mm_P1.27mm" H 6200 3550 50  0001 C CNN
F 3 "http://www.ti.com/lit/ds/symlink/tl061.pdf" H 6200 3550 50  0001 C CNN
	1    6200 3550
	1    0    0    1   
$EndComp
$Comp
L Device:Q_PNP_Darlington_BCE Q1
U 1 1 5F7EA335
P 3550 2850
F 0 "Q1" H 3740 2804 50  0000 L CNN
F 1 "Q_PNP_Darlington_BCE" H 3740 2895 50  0000 L CNN
F 2 "Package_TO_SOT_THT:TO-218-3_Vertical" H 3750 2950 50  0001 C CNN
F 3 "~" H 3550 2850 50  0001 C CNN
	1    3550 2850
	1    0    0    1   
$EndComp
$Comp
L Device:R_US R4
U 1 1 5F7F9C96
P 3350 1850
F 0 "R4" H 3418 1896 50  0000 L CNN
F 1 "1W100" H 3418 1805 50  0000 L CNN
F 2 "Resistor_THT:R_Axial_DIN0516_L15.5mm_D5.0mm_P25.40mm_Horizontal" V 3390 1840 50  0001 C CNN
F 3 "~" H 3350 1850 50  0001 C CNN
	1    3350 1850
	1    0    0    -1  
$EndComp
$Comp
L Device:R_US R5
U 1 1 5F7F9F88
P 3350 2250
F 0 "R5" H 3418 2296 50  0000 L CNN
F 1 "1W100" H 3418 2205 50  0000 L CNN
F 2 "Resistor_THT:R_Axial_DIN0516_L15.5mm_D5.0mm_P25.40mm_Horizontal" V 3390 2240 50  0001 C CNN
F 3 "~" H 3350 2250 50  0001 C CNN
	1    3350 2250
	1    0    0    -1  
$EndComp
$Comp
L Device:R_US R7
U 1 1 5F7FA1AC
P 3900 2250
F 0 "R7" H 3968 2296 50  0000 L CNN
F 1 "1W100" H 3968 2205 50  0000 L CNN
F 2 "Resistor_THT:R_Axial_DIN0516_L15.5mm_D5.0mm_P25.40mm_Horizontal" V 3940 2240 50  0001 C CNN
F 3 "~" H 3900 2250 50  0001 C CNN
	1    3900 2250
	1    0    0    -1  
$EndComp
$Comp
L Device:R_US R6
U 1 1 5F7FA428
P 3900 1850
F 0 "R6" H 3968 1896 50  0000 L CNN
F 1 "1W100" H 3968 1805 50  0000 L CNN
F 2 "Resistor_THT:R_Axial_DIN0516_L15.5mm_D5.0mm_P25.40mm_Horizontal" V 3940 1840 50  0001 C CNN
F 3 "~" H 3900 1850 50  0001 C CNN
	1    3900 1850
	1    0    0    -1  
$EndComp
Wire Wire Line
	3350 1600 3650 1600
Wire Wire Line
	3900 1600 3900 1700
Wire Wire Line
	3350 1600 3350 1700
Wire Wire Line
	3350 2000 3350 2100
Wire Wire Line
	3900 2000 3900 2100
Wire Wire Line
	3350 2500 3650 2500
Wire Wire Line
	3900 2500 3900 2400
Wire Wire Line
	3350 2400 3350 2500
Wire Wire Line
	3650 2650 3650 2500
Connection ~ 3650 2500
Wire Wire Line
	3650 2500 3900 2500
Wire Wire Line
	2550 2750 2250 2750
Wire Wire Line
	2250 2750 2250 2500
Wire Wire Line
	1850 2950 2550 2950
$Comp
L power:+15V #PWR011
U 1 1 5F806B3B
P 3650 1550
F 0 "#PWR011" H 3650 1400 50  0001 C CNN
F 1 "+15V" H 3665 1723 50  0000 C CNN
F 2 "" H 3650 1550 50  0001 C CNN
F 3 "" H 3650 1550 50  0001 C CNN
	1    3650 1550
	1    0    0    -1  
$EndComp
Wire Wire Line
	3650 1550 3650 1600
Connection ~ 3650 1600
Wire Wire Line
	3650 1600 3900 1600
Wire Wire Line
	3350 2850 3150 2850
Wire Wire Line
	3350 2500 2250 2500
Connection ~ 3350 2500
$Comp
L Switch:SW_Push_DPDT SW1
U 1 1 5F828979
P 3350 4050
F 0 "SW1" H 3350 4535 50  0000 C CNN
F 1 "Invert" H 3350 4444 50  0000 C CNN
F 2 "Connector_JST:JST_EH_B6B-EH-A_1x06_P2.50mm_Vertical" H 3350 4250 50  0001 C CNN
F 3 "~" H 3350 4250 50  0001 C CNN
	1    3350 4050
	1    0    0    -1  
$EndComp
$Comp
L Connector:Screw_Terminal_01x02 J2
U 1 1 5F82A895
P 2600 4100
F 0 "J2" H 2518 3775 50  0000 C CNN
F 1 "Probes" H 2518 3866 50  0000 C CNN
F 2 "TerminalBlock:TerminalBlock_Altech_AK300-2_P5.00mm" H 2600 4100 50  0001 C CNN
F 3 "~" H 2600 4100 50  0001 C CNN
	1    2600 4100
	-1   0    0    1   
$EndComp
Wire Wire Line
	2800 4000 2950 4000
Wire Wire Line
	2950 4000 2950 3850
Wire Wire Line
	2950 3850 3150 3850
Wire Wire Line
	2800 4100 2950 4100
Wire Wire Line
	2950 4100 2950 4250
Wire Wire Line
	2950 4250 3150 4250
Wire Wire Line
	3550 4150 3650 4150
Wire Wire Line
	3650 4150 3650 4050
Wire Wire Line
	3650 3950 3550 3950
$Comp
L power:GND #PWR012
U 1 1 5F8308D4
P 3900 4100
F 0 "#PWR012" H 3900 3850 50  0001 C CNN
F 1 "GND" H 3905 3927 50  0000 C CNN
F 2 "" H 3900 4100 50  0001 C CNN
F 3 "" H 3900 4100 50  0001 C CNN
	1    3900 4100
	1    0    0    -1  
$EndComp
Wire Wire Line
	3900 4100 3900 4050
Wire Wire Line
	3900 4050 3650 4050
Connection ~ 3650 4050
Wire Wire Line
	3650 4050 3650 3950
Wire Wire Line
	3550 4350 4150 4350
Wire Wire Line
	4150 4350 4150 3750
Wire Wire Line
	4150 3750 3650 3750
Wire Wire Line
	3650 3050 3650 3250
Connection ~ 3650 3750
Wire Wire Line
	3650 3750 3550 3750
$Comp
L power:+15V #PWR013
U 1 1 5F842FD2
P 4950 3600
F 0 "#PWR013" H 4950 3450 50  0001 C CNN
F 1 "+15V" H 4965 3773 50  0000 C CNN
F 2 "" H 4950 3600 50  0001 C CNN
F 3 "" H 4950 3600 50  0001 C CNN
	1    4950 3600
	1    0    0    -1  
$EndComp
$Comp
L Device:R_US R8
U 1 1 5F843ADE
P 4950 3850
F 0 "R8" H 5018 3896 50  0000 L CNN
F 1 "2.2k" H 5018 3805 50  0000 L CNN
F 2 "Resistor_SMD:R_1206_3216Metric" V 4990 3840 50  0001 C CNN
F 3 "~" H 4950 3850 50  0001 C CNN
	1    4950 3850
	1    0    0    -1  
$EndComp
$Comp
L Device:D_Zener D4
U 1 1 5F84438E
P 4950 4300
F 0 "D4" V 4904 4380 50  0000 L CNN
F 1 "dz12v" V 4995 4380 50  0000 L CNN
F 2 "Resistor_THT:R_Axial_DIN0411_L9.9mm_D3.6mm_P15.24mm_Horizontal" H 4950 4300 50  0001 C CNN
F 3 "~" H 4950 4300 50  0001 C CNN
	1    4950 4300
	0    1    1    0   
$EndComp
$Comp
L power:GND #PWR014
U 1 1 5F844FB0
P 4950 4600
F 0 "#PWR014" H 4950 4350 50  0001 C CNN
F 1 "GND" H 4955 4427 50  0000 C CNN
F 2 "" H 4950 4600 50  0001 C CNN
F 3 "" H 4950 4600 50  0001 C CNN
	1    4950 4600
	1    0    0    -1  
$EndComp
Wire Wire Line
	4950 3600 4950 3700
Wire Wire Line
	4950 4000 4950 4100
Wire Wire Line
	4950 4450 4950 4600
$Comp
L Device:R_US R9
U 1 1 5F84C580
P 5550 3650
F 0 "R9" V 5345 3650 50  0000 C CNN
F 1 "10k" V 5436 3650 50  0000 C CNN
F 2 "Resistor_SMD:R_1206_3216Metric" V 5590 3640 50  0001 C CNN
F 3 "~" H 5550 3650 50  0001 C CNN
	1    5550 3650
	0    1    1    0   
$EndComp
$Comp
L Device:R_US R10
U 1 1 5F84D04E
P 6200 4100
F 0 "R10" V 5995 4100 50  0000 C CNN
F 1 "1M" V 6086 4100 50  0000 C CNN
F 2 "Resistor_THT:R_Axial_DIN0207_L6.3mm_D2.5mm_P10.16mm_Horizontal" V 6240 4090 50  0001 C CNN
F 3 "~" H 6200 4100 50  0001 C CNN
	1    6200 4100
	0    1    1    0   
$EndComp
Wire Wire Line
	6350 4100 6650 4100
Wire Wire Line
	6650 4100 6650 3550
Wire Wire Line
	6650 3550 6500 3550
Wire Wire Line
	5900 3650 5800 3650
Wire Wire Line
	5400 3650 5300 3650
Wire Wire Line
	5300 3650 5300 4100
Wire Wire Line
	5300 4100 4950 4100
Connection ~ 4950 4100
Wire Wire Line
	4950 4100 4950 4150
Wire Wire Line
	6050 4100 5800 4100
Wire Wire Line
	5800 4100 5800 3650
Connection ~ 5800 3650
Wire Wire Line
	5800 3650 5700 3650
Wire Wire Line
	5900 3450 5750 3450
Wire Wire Line
	5750 3450 5750 3250
Wire Wire Line
	5750 3250 5400 3250
Connection ~ 3650 3250
Wire Wire Line
	3650 3250 3650 3750
$Comp
L Diode:1N4148 D5
U 1 1 5F85E254
P 6800 3550
F 0 "D5" H 6800 3333 50  0000 C CNN
F 1 "1N4148" H 6800 3424 50  0000 C CNN
F 2 "Resistor_THT:R_Axial_DIN0207_L6.3mm_D2.5mm_P7.62mm_Horizontal" H 6800 3375 50  0001 C CNN
F 3 "https://assets.nexperia.com/documents/data-sheet/1N4148_1N4448.pdf" H 6800 3550 50  0001 C CNN
	1    6800 3550
	-1   0    0    1   
$EndComp
Connection ~ 6650 3550
$Comp
L Device:CP_Small C4
U 1 1 5F85F6C8
P 7050 3800
F 0 "C4" H 7138 3846 50  0000 L CNN
F 1 "22µ" H 7138 3755 50  0000 L CNN
F 2 "Capacitor_SMD:CP_Elec_3x5.3" H 7050 3800 50  0001 C CNN
F 3 "~" H 7050 3800 50  0001 C CNN
	1    7050 3800
	1    0    0    -1  
$EndComp
$Comp
L Device:R_US R11
U 1 1 5F85F7D7
P 7250 3550
F 0 "R11" V 7045 3550 50  0000 C CNN
F 1 "150k" V 7136 3550 50  0000 C CNN
F 2 "Resistor_SMD:R_1206_3216Metric" V 7290 3540 50  0001 C CNN
F 3 "~" H 7250 3550 50  0001 C CNN
	1    7250 3550
	0    1    1    0   
$EndComp
$Comp
L Device:R_US R12
U 1 1 5F85FCBA
P 7550 3800
F 0 "R12" H 7482 3754 50  0000 R CNN
F 1 "5M" H 7482 3845 50  0000 R CNN
F 2 "Resistor_THT:R_Axial_DIN0207_L6.3mm_D2.5mm_P10.16mm_Horizontal" V 7590 3790 50  0001 C CNN
F 3 "~" H 7550 3800 50  0001 C CNN
	1    7550 3800
	-1   0    0    1   
$EndComp
$Comp
L power:GND #PWR015
U 1 1 5F8608E7
P 7050 4200
F 0 "#PWR015" H 7050 3950 50  0001 C CNN
F 1 "GND" H 7055 4027 50  0000 C CNN
F 2 "" H 7050 4200 50  0001 C CNN
F 3 "" H 7050 4200 50  0001 C CNN
	1    7050 4200
	1    0    0    -1  
$EndComp
$Comp
L power:GND #PWR016
U 1 1 5F860BD3
P 7550 4200
F 0 "#PWR016" H 7550 3950 50  0001 C CNN
F 1 "GND" H 7555 4027 50  0000 C CNN
F 2 "" H 7550 4200 50  0001 C CNN
F 3 "" H 7550 4200 50  0001 C CNN
	1    7550 4200
	1    0    0    -1  
$EndComp
Wire Wire Line
	6950 3550 7050 3550
Wire Wire Line
	7050 3700 7050 3550
Connection ~ 7050 3550
Wire Wire Line
	7050 3550 7100 3550
Wire Wire Line
	7050 3900 7050 4200
Wire Wire Line
	7550 4200 7550 3950
Wire Wire Line
	7550 3650 7550 3550
Wire Wire Line
	7550 3550 7400 3550
$Comp
L Transistor_BJT:BC517 Q2
U 1 1 5F8704CB
P 7900 3550
F 0 "Q2" H 8091 3596 50  0000 L CNN
F 1 "BC517" H 8091 3505 50  0000 L CNN
F 2 "Package_TO_SOT_THT:TO-92L_Inline_Wide" H 8100 3475 50  0001 L CIN
F 3 "https://www.onsemi.com/pub/Collateral/BC517-D74Z-D.PDF" H 7900 3550 50  0001 L CNN
	1    7900 3550
	1    0    0    -1  
$EndComp
$Comp
L power:GND #PWR018
U 1 1 5F870AA7
P 8000 4200
F 0 "#PWR018" H 8000 3950 50  0001 C CNN
F 1 "GND" H 8005 4027 50  0000 C CNN
F 2 "" H 8000 4200 50  0001 C CNN
F 3 "" H 8000 4200 50  0001 C CNN
	1    8000 4200
	1    0    0    -1  
$EndComp
Wire Wire Line
	8000 3750 8000 4200
Wire Wire Line
	7700 3550 7550 3550
Connection ~ 7550 3550
$Comp
L Device:R_US R13
U 1 1 5F87775C
P 8000 3100
F 0 "R13" H 8068 3146 50  0000 L CNN
F 1 "130" H 8068 3055 50  0000 L CNN
F 2 "Resistor_SMD:R_1206_3216Metric" V 8040 3090 50  0001 C CNN
F 3 "~" H 8000 3100 50  0001 C CNN
	1    8000 3100
	1    0    0    -1  
$EndComp
Wire Wire Line
	8000 3250 8000 3350
$Comp
L Relay:DIPxx-2Axx-21x K1
U 1 1 5F87B55D
P 8300 2450
F 0 "K1" H 8780 2496 50  0000 L CNN
F 1 "DIPxx-2Axx-21x" H 8780 2405 50  0000 L CNN
F 2 "Relay_THT:Relay_StandexMeder_DIP_LowProfile" H 8800 2400 50  0001 L CNN
F 3 "https://standexelectronics.com/wp-content/uploads/datasheet_reed_relay_DIP.pdf" H 8300 2450 50  0001 C CNN
	1    8300 2450
	1    0    0    -1  
$EndComp
Wire Wire Line
	8000 2750 8000 2850
$Comp
L power:+15V #PWR017
U 1 1 5F88058F
P 8000 1850
F 0 "#PWR017" H 8000 1700 50  0001 C CNN
F 1 "+15V" H 8015 2023 50  0000 C CNN
F 2 "" H 8000 1850 50  0001 C CNN
F 3 "" H 8000 1850 50  0001 C CNN
	1    8000 1850
	1    0    0    -1  
$EndComp
Wire Wire Line
	8000 1850 8000 2050
$Comp
L Diode:1N4001 D6
U 1 1 5F8843D6
P 7500 2450
F 0 "D6" V 7454 2530 50  0000 L CNN
F 1 "1N4001" V 7545 2530 50  0000 L CNN
F 2 "Resistor_THT:R_Axial_DIN0614_L14.3mm_D5.7mm_P20.32mm_Horizontal" H 7500 2275 50  0001 C CNN
F 3 "http://www.vishay.com/docs/88503/1n4001.pdf" H 7500 2450 50  0001 C CNN
	1    7500 2450
	0    1    1    0   
$EndComp
Wire Wire Line
	7500 2050 8000 2050
Wire Wire Line
	7500 2050 7500 2300
Connection ~ 8000 2050
Wire Wire Line
	8000 2050 8000 2150
Wire Wire Line
	7500 2600 7500 2850
Wire Wire Line
	7500 2850 8000 2850
Connection ~ 8000 2850
Wire Wire Line
	8000 2850 8000 2950
$Comp
L Connector:Screw_Terminal_01x03 J3
U 1 1 5F88F7C3
P 8600 1100
F 0 "J3" V 8564 912 50  0000 R CNN
F 1 "voltagemodule" V 8473 912 50  0000 R CNN
F 2 "TerminalBlock:TerminalBlock_Altech_AK300-3_P5.00mm" H 8600 1100 50  0001 C CNN
F 3 "~" H 8600 1100 50  0001 C CNN
	1    8600 1100
	0    -1   -1   0   
$EndComp
$Comp
L power:+15V #PWR020
U 1 1 5F8922D9
P 9200 3100
F 0 "#PWR020" H 9200 2950 50  0001 C CNN
F 1 "+15V" H 9215 3273 50  0000 C CNN
F 2 "" H 9200 3100 50  0001 C CNN
F 3 "" H 9200 3100 50  0001 C CNN
	1    9200 3100
	1    0    0    -1  
$EndComp
$Comp
L Device:CP_Small C5
U 1 1 5F892D9A
P 9200 3350
F 0 "C5" H 9288 3396 50  0000 L CNN
F 1 "100µ" H 9288 3305 50  0000 L CNN
F 2 "Capacitor_SMD:CP_Elec_5x3" H 9200 3350 50  0001 C CNN
F 3 "~" H 9200 3350 50  0001 C CNN
	1    9200 3350
	1    0    0    -1  
$EndComp
$Comp
L power:GND #PWR021
U 1 1 5F893606
P 9200 3600
F 0 "#PWR021" H 9200 3350 50  0001 C CNN
F 1 "GND" H 9205 3427 50  0000 C CNN
F 2 "" H 9200 3600 50  0001 C CNN
F 3 "" H 9200 3600 50  0001 C CNN
	1    9200 3600
	1    0    0    -1  
$EndComp
Wire Wire Line
	9200 3100 9200 3200
Wire Wire Line
	9200 3450 9200 3600
Wire Wire Line
	9200 3200 8700 3200
Wire Wire Line
	8700 3200 8700 2750
Connection ~ 9200 3200
Wire Wire Line
	9200 3200 9200 3250
Wire Wire Line
	8700 2150 8700 1300
Wire Wire Line
	8700 1200 8700 1300
Connection ~ 8700 1300
Wire Wire Line
	8400 2150 8400 1750
Wire Wire Line
	8400 1750 8600 1750
Wire Wire Line
	8600 1750 8600 1300
$Comp
L power:GND #PWR019
U 1 1 5F8ABC39
P 8300 1450
F 0 "#PWR019" H 8300 1200 50  0001 C CNN
F 1 "GND" H 8305 1277 50  0000 C CNN
F 2 "" H 8300 1450 50  0001 C CNN
F 3 "" H 8300 1450 50  0001 C CNN
	1    8300 1450
	1    0    0    -1  
$EndComp
Wire Wire Line
	8300 1450 8300 1400
Wire Wire Line
	8300 1400 8500 1400
Wire Wire Line
	8500 1400 8500 1300
Text GLabel 8400 3000 3    50   Input ~ 0
RELAY1
Wire Wire Line
	8400 2750 8400 3000
Text GLabel 5750 2850 2    50   Input ~ 0
RELAY1
Wire Wire Line
	5750 2850 5400 2850
Wire Wire Line
	5400 2850 5400 3250
Connection ~ 5400 3250
Wire Wire Line
	5400 3250 3650 3250
$Comp
L power:PWR_FLAG #FLG0101
U 1 1 5F94B6A3
P 2800 5900
F 0 "#FLG0101" H 2800 5975 50  0001 C CNN
F 1 "PWR_FLAG" H 2800 6073 50  0000 C CNN
F 2 "" H 2800 5900 50  0001 C CNN
F 3 "~" H 2800 5900 50  0001 C CNN
	1    2800 5900
	1    0    0    -1  
$EndComp
Wire Wire Line
	2800 5900 2800 6000
Connection ~ 2800 6000
Wire Wire Line
	5050 6050 5550 6050
$EndSCHEMATC
